<svg width="490" height="104" viewBox="0 0 490 104" fill="none" xmlns="http://www.w3.org/2000/svg">
<path d="M97.776 43.2809C98.0373 42.0516 97.6213 40.7796 96.7013 39.9249C84.1893 28.3182 70.06 18.0636 54.6106 9.37955C53.5346 8.77688 52.2173 8.77688 51.1426 9.37955C35.6933 18.0636 21.564 28.3182 9.05197 39.9249C8.13064 40.7796 7.71464 42.0516 7.97597 43.2809C11.8146 61.2476 17.2013 77.8782 24.02 92.8315C24.5346 93.9595 25.5946 94.7529 26.8266 94.9009C44.1333 96.9836 61.6213 96.9836 78.9253 94.9009C80.1586 94.7529 81.2186 93.9595 81.7346 92.8315C88.5506 77.8795 93.936 61.2476 97.776 43.2809ZM105.637 40.0982C105.637 40.3316 105.615 40.5636 105.568 40.7942C103.427 51.5396 100.751 61.8502 97.5653 71.6529C94.38 81.4569 90.68 90.7529 86.4933 99.4742C86.2346 100.013 85.8506 100.47 85.3813 100.81C84.9146 101.153 84.36 101.38 83.7706 101.462C78.6453 102.17 73.5026 102.702 68.3506 103.058C63.1973 103.413 58.0373 103.592 52.8746 103.592C42.5546 103.592 32.232 102.881 21.9826 101.462C21.3906 101.38 20.8386 101.153 20.372 100.81C19.9026 100.47 19.5173 100.013 19.2586 99.4742C15.072 90.7529 11.3746 81.4569 8.1893 71.6529C5.00263 61.8502 2.32664 51.5396 0.185303 40.7942C0.138636 40.5636 0.115967 40.3316 0.115967 40.0982C0.115967 39.1409 0.503967 38.2129 1.20797 37.5316C8.49597 30.5049 16.3453 23.9369 24.6933 17.8716C33.0426 11.8049 41.8933 6.23956 51.1826 1.21956C51.7106 0.934231 52.2933 0.791551 52.8746 0.791551C53.4586 0.791551 54.04 0.934231 54.5706 1.21956C63.86 6.23956 72.708 11.8049 81.0573 17.8716C89.4066 23.9369 97.2533 30.5049 104.545 37.5316C105.249 38.2129 105.637 39.1409 105.637 40.0982Z" fill="white"/>
<path d="M70.5375 49.1259H59.9522V38.5392C59.9522 36.5712 58.3549 34.9752 56.3882 34.9752H49.3655C47.3975 34.9752 45.8015 36.5712 45.8015 38.5392V49.1259H35.2149C33.2469 49.1259 31.6509 50.7206 31.6509 52.6899V59.7112C31.6509 61.6806 33.2469 63.2752 35.2149 63.2752H45.8015V73.8619C45.8015 75.8299 47.3975 77.4259 49.3655 77.4259H56.3882C58.3549 77.4259 59.9522 75.8299 59.9522 73.8619V63.2752H70.5375C72.5069 63.2752 74.1015 61.6806 74.1015 59.7112V52.6899C74.1015 50.7206 72.5069 49.1259 70.5375 49.1259Z" fill="white"/>
<path d="M140.148 61.3884H157.091L150.708 44.4444C150.36 43.5551 149.723 43.1111 148.794 43.1111C147.866 43.1111 147.207 43.5551 146.822 44.4444L140.148 61.3884ZM159.528 67.8871H137.595L134.403 75.9524H126.86L140.612 41.1377C141.27 39.2804 142.286 37.9751 143.659 37.2217C145.031 36.4671 146.763 36.0897 148.851 36.0897C150.902 36.0897 152.604 36.4671 153.958 37.2217C155.311 37.9751 156.318 39.2804 156.975 41.1377L170.204 75.9524H162.604L159.528 67.8871Z" fill="white"/>
<path d="M206.469 36.7861C208.674 36.7861 209.775 37.8501 209.775 39.9781V75.9528H202.873V44.3288C202.873 43.8648 202.639 43.6328 202.175 43.6328H183.607C183.105 43.6328 182.854 43.8648 182.854 44.3288V75.9528H176.006V39.9781C176.006 37.8501 177.09 36.7861 179.257 36.7861H206.469Z" fill="white"/>
<path d="M245.926 36.7861V43.6328H234.495V75.9528H227.59V43.6328H216.159V36.7861H245.926Z" fill="white"/>
<path d="M283.64 36.7861V43.6328H264.028C261.94 43.6328 260.431 44.0781 259.502 44.9674C258.574 45.8581 258.111 47.0568 258.111 48.5648L258.116 53.2061H264.087H283.35V59.4154H263.912H257.936V64.1728C257.936 65.7208 258.419 66.9288 259.387 67.7994C260.352 68.6701 261.842 69.1048 263.854 69.1048H283.699V75.9528H263.854C261.534 75.9528 259.551 75.6821 257.907 75.1394C256.263 74.5981 254.908 73.8541 253.844 72.9061C252.78 71.9581 252.007 70.8261 251.524 69.5114C251.04 68.1968 250.799 66.7848 250.799 65.2754C250.799 63.0328 250.915 51.8341 250.915 47.4621C250.915 45.9154 251.167 44.4834 251.668 43.1688C252.171 41.8541 252.955 40.7221 254.019 39.7741C255.083 38.8261 256.436 38.0914 258.08 37.5688C259.724 37.0474 261.708 36.7861 264.028 36.7861H283.64Z" fill="white"/>
<path d="M299.423 36.7861V53.3808H303.194C304.856 53.3808 306.222 53.3328 307.284 53.2354C308.348 53.1394 309.228 52.9168 309.926 52.5688C310.62 52.2208 311.211 51.7274 311.695 51.0888C312.178 50.4514 312.69 49.5901 313.232 48.5074L319.21 36.7861H326.578L320.427 48.9714C319.538 50.7114 318.59 52.1621 317.584 53.3221C316.578 54.4834 315.263 55.4114 313.639 56.1074C314.567 56.3408 315.379 56.6594 316.075 57.0648C316.772 57.4714 317.419 57.9741 318.019 58.5741C318.618 59.1741 319.188 59.8901 319.731 60.7208C320.272 61.5528 320.834 62.5301 321.414 63.6501L327.738 75.9528H320.079L314.103 64.3474C313.562 63.3034 313.039 62.4714 312.536 61.8528C312.032 61.2341 311.395 60.7501 310.62 60.4021C309.847 60.0541 308.882 59.8314 307.72 59.7341C306.56 59.6381 305.051 59.5901 303.194 59.5901H299.423V75.9528H292.576V36.7861H299.423Z" fill="white"/>
<path d="M344.448 61.3884H361.39L355.009 44.4444C354.66 43.5551 354.022 43.1111 353.093 43.1111C352.165 43.1111 351.508 43.5551 351.121 44.4444L344.448 61.3884ZM363.828 67.8871H341.896L338.704 75.9524H331.161L344.913 41.1377C345.57 39.2804 346.585 37.9751 347.958 37.2217C349.33 36.4671 351.062 36.0897 353.152 36.0897C355.201 36.0897 356.904 36.4671 358.257 37.2217C359.612 37.9751 360.617 39.2804 361.274 41.1377L374.505 75.9524H366.904L363.828 67.8871Z" fill="white"/>
<path d="M396.844 36.7861C398.622 36.7861 400.101 36.9514 401.282 37.2794C402.462 37.6088 403.4 38.1488 404.096 38.9034C404.793 39.6581 405.276 40.6248 405.546 41.8048C405.817 42.9848 405.953 44.4261 405.953 46.1274V75.9528H399.106V46.5914C399.106 45.5474 398.893 44.7928 398.469 44.3288C398.041 43.8648 397.308 43.6328 396.262 43.6328H392.724V36.7861H396.844Z" fill="white"/>
<path d="M420.865 58.0225C420.401 58.5651 420.17 59.1638 420.17 59.8211C420.17 60.4398 420.373 60.9144 420.779 61.2438C421.183 61.5718 421.851 61.7358 422.781 61.7358H439.897V45.5478C439.897 44.2718 439.317 43.6331 438.157 43.6331H435.081C434.19 43.6331 433.514 43.7491 433.051 43.9811C432.586 44.2131 432.082 44.6585 431.542 45.3158L420.865 58.0225ZM426.262 41.1958C426.881 40.4611 427.479 39.8238 428.059 39.2811C428.641 38.7398 429.279 38.2851 429.975 37.9171C430.67 37.5505 431.454 37.2705 432.325 37.0758C433.195 36.8838 434.211 36.7865 435.371 36.7865H439.723C442.277 36.7865 444.094 37.3958 445.177 38.6131C446.259 39.8318 446.802 41.6025 446.802 43.9225V75.9518H439.897V67.8278H421.561C418.234 67.8278 415.894 67.2478 414.541 66.0878C413.186 64.9278 412.509 63.2451 412.509 61.0398C412.509 59.5704 412.731 58.3705 413.177 57.4425C413.621 56.5144 414.211 55.6065 414.947 54.7158L426.262 41.1958Z" fill="white"/>
<path d="M461.191 49.3193C461.191 51.0606 461.663 52.3366 462.612 53.1486C463.559 53.9606 464.923 54.3673 466.703 54.3673H482.602C482.407 50.6153 481.49 47.8886 479.846 46.186C478.202 44.4846 475.735 43.6326 472.447 43.6326H466.994C465.02 43.6326 463.559 44.1553 462.612 45.1993C461.663 46.2433 461.191 47.618 461.191 49.3193ZM474.072 36.786C476.354 36.786 478.442 37.1446 480.338 37.8593C482.234 38.5753 483.858 39.6966 485.214 41.2246C486.566 42.754 487.62 44.7153 488.375 47.114C489.13 49.514 489.506 52.394 489.506 55.7593C489.506 62.606 487.978 67.6833 484.923 70.99C481.867 74.298 477.496 75.9526 471.81 75.9526H458.928V69.1046H471.81C474.942 69.1046 477.38 68.39 479.12 66.958C480.862 65.5273 481.963 63.1673 482.428 59.8793H466.007C462.022 59.8793 459.111 59.0193 457.274 57.2966C455.436 55.5766 454.518 52.898 454.518 49.2606C454.518 47.5206 454.75 45.886 455.215 44.358C455.678 42.83 456.423 41.506 457.448 40.3833C458.472 39.262 459.807 38.382 461.451 37.7433C463.096 37.1046 465.116 36.786 467.515 36.786H474.072Z" fill="white"/>
<path d="M131.577 89.0778C133.475 89.0778 134.27 89.9644 134.455 91.1938C134.487 91.4284 134.439 91.5364 134.222 91.5991L133.849 91.7084C133.615 91.8018 133.538 91.7391 133.491 91.5204C133.335 90.5551 132.774 90.0111 131.437 90.0111C129.895 90.0111 128.978 90.8218 128.743 92.1284L128.325 94.4938C128.09 95.8018 128.743 96.6098 130.27 96.6098C131.561 96.6098 132.37 96.0658 132.883 95.0071C132.993 94.7898 133.086 94.7591 133.305 94.8204L133.709 94.9604C133.895 95.0391 133.942 95.1324 133.818 95.3498C133.086 96.7818 131.966 97.5284 130.113 97.5284C127.887 97.5284 126.954 96.2991 127.297 94.3844L127.701 92.0818C128.043 90.1818 129.289 89.0778 131.577 89.0778Z" fill="white"/>
<path d="M145.698 89.9801C144.189 89.9801 143.146 90.8361 142.881 92.2681L142.757 92.8747C143.597 93.0627 144.485 93.1401 145.23 93.1401C146.615 93.1401 147.489 92.6734 147.722 91.7241C148.002 90.5867 147.223 89.9801 145.698 89.9801ZM145.854 89.0774C147.954 89.0774 149.122 90.1361 148.733 91.8467C148.422 93.2947 147.146 93.9641 145.075 93.9641C144.313 93.9641 143.379 93.8707 142.615 93.7161L142.477 94.4934C142.242 95.8467 142.895 96.6254 144.438 96.6254C145.714 96.6254 146.507 96.1441 147.083 95.3961C147.254 95.2094 147.363 95.1627 147.55 95.2867L147.846 95.4747C148.017 95.5827 148.017 95.7241 147.861 95.9254C147.146 96.8747 146.071 97.5281 144.282 97.5281C141.947 97.5281 141.138 96.1587 141.481 94.2761L141.854 92.2521C142.211 90.2294 143.659 89.0774 145.854 89.0774Z" fill="white"/>
<path d="M164.924 89.0778C166.9 89.0778 167.586 90.1978 167.243 92.1125L166.388 97.0312C166.34 97.2485 166.263 97.3112 166.046 97.3112H165.563C165.344 97.3112 165.298 97.2485 165.33 97.0312L166.216 92.0818C166.451 90.6965 165.967 90.0432 164.628 90.0432C163.586 90.0432 162.762 90.4165 162.419 90.5712C162.559 90.9605 162.574 91.4432 162.466 92.0352L161.594 97.0312C161.548 97.2485 161.47 97.3112 161.251 97.3112H160.77C160.552 97.3112 160.506 97.2485 160.552 97.0312L161.423 92.0818C161.672 90.6498 161.112 90.0432 159.788 90.0432C159.104 90.0432 158.606 90.1525 158.108 90.3538C157.859 90.4632 157.812 90.6032 157.766 90.7738L156.675 97.0312C156.628 97.2485 156.552 97.3112 156.348 97.3112H155.851C155.648 97.3112 155.586 97.2485 155.632 97.0312L156.786 90.4632C156.879 89.9805 157.034 89.7778 157.532 89.5752C158.123 89.3272 158.932 89.0778 160.084 89.0778C160.987 89.0778 161.624 89.3112 161.999 89.7632C162.356 89.6058 163.415 89.0778 164.924 89.0778Z" fill="white"/>
<path d="M177.836 96.5947C179.347 96.5947 180.187 95.9414 180.436 94.5707C180.653 93.2947 180.016 92.6107 178.615 92.6107C177.759 92.6107 177.012 92.7974 176.311 93.0467L175.799 95.8787C175.767 96.1281 175.783 96.1747 176.031 96.2987C176.452 96.4561 177.028 96.5947 177.836 96.5947ZM178.833 91.7081C180.825 91.7081 181.791 92.7974 181.464 94.6494C181.121 96.6107 179.891 97.5281 177.807 97.5281C176.544 97.5281 175.72 97.3267 175.16 97.0934C174.693 96.8907 174.599 96.7201 174.693 96.2214L175.875 89.5907C175.921 89.3734 176 89.3107 176.217 89.3107H176.669C176.887 89.3107 176.949 89.3734 176.903 89.5907L176.468 92.1281C177.213 91.8787 177.976 91.7081 178.833 91.7081Z" fill="white"/>
<path d="M203.154 89.0778C205.052 89.0778 205.847 89.9644 206.032 91.1938C206.064 91.4284 206.016 91.5364 205.799 91.5991L205.426 91.7084C205.192 91.8018 205.115 91.7391 205.068 91.5204C204.911 90.5551 204.351 90.0111 203.014 90.0111C201.472 90.0111 200.555 90.8218 200.32 92.1284L199.902 94.4938C199.667 95.8018 200.32 96.6098 201.847 96.6098C203.138 96.6098 203.947 96.0658 204.46 95.0071C204.57 94.7898 204.663 94.7591 204.882 94.8204L205.286 94.9604C205.472 95.0391 205.519 95.1324 205.395 95.3498C204.663 96.7818 203.543 97.5284 201.69 97.5284C199.464 97.5284 198.531 96.2991 198.874 94.3844L199.278 92.0818C199.62 90.1818 200.866 89.0778 203.154 89.0778Z" fill="white"/>
<path d="M217.275 90.027C215.827 90.027 214.784 90.743 214.567 91.9417L214.084 94.6803C213.865 95.863 214.676 96.579 216.107 96.579C217.585 96.579 218.613 95.863 218.831 94.6803L219.313 91.9417C219.531 90.743 218.739 90.027 217.275 90.027ZM217.415 89.0777C219.563 89.0777 220.668 90.2137 220.357 91.9883L219.873 94.727C219.563 96.5003 218.131 97.5283 215.983 97.5283C213.865 97.5283 212.731 96.4243 213.041 94.6497L213.524 91.9097C213.835 90.1363 215.299 89.0777 217.415 89.0777Z" fill="white"/>
<path d="M229.779 89.5907L228.923 94.4627C228.691 95.8627 229.235 96.5787 230.729 96.5787C231.817 96.5787 232.44 96.3307 233.109 96.1894L234.277 89.5907C234.308 89.3734 234.401 89.3107 234.604 89.3107H235.085C235.289 89.3107 235.367 89.3734 235.32 89.5907L234.168 96.1441C235.04 96.0507 235.444 96.4707 235.257 97.5121L234.977 99.1934C234.931 99.4121 234.868 99.4734 234.667 99.4734H234.215C233.997 99.4734 233.919 99.4121 233.967 99.1934L234.247 97.6374C234.308 97.2481 234.168 96.9374 233.608 97.0307C232.767 97.1854 231.912 97.5281 230.448 97.5281C228.316 97.5281 227.553 96.3307 227.896 94.4161L228.737 89.5907C228.783 89.3734 228.861 89.3107 229.079 89.3107H229.561C229.763 89.3107 229.825 89.3734 229.779 89.5907Z" fill="white"/>
<path d="M250.486 89.5907L249.334 96.1587C249.239 96.6414 249.1 96.8121 248.586 97.0147C247.948 97.2641 247.014 97.5281 245.598 97.5281C243.466 97.5281 242.719 96.3307 243.062 94.4161L243.902 89.5907C243.948 89.3734 244.026 89.3107 244.243 89.3107H244.727C244.928 89.3107 244.991 89.3734 244.944 89.5907L244.088 94.4481C243.855 95.8467 244.384 96.5787 245.894 96.5787C246.782 96.5787 247.482 96.4241 247.995 96.2361C248.243 96.1281 248.322 96.0041 248.352 95.8014L249.443 89.5907C249.474 89.3734 249.567 89.3107 249.77 89.3107H250.251C250.455 89.3107 250.532 89.3734 250.486 89.5907Z" fill="white"/>
<path d="M261.79 90.0426C260.172 90.0426 259.33 90.6333 259.05 92.1746L258.661 94.3386C258.413 95.708 258.958 96.5786 260.421 96.5786C261.48 96.5786 262.35 96.3613 262.818 96.2053L263.782 90.7586C263.814 90.5093 263.782 90.448 263.534 90.3386C263.129 90.1813 262.569 90.0426 261.79 90.0426ZM261.884 89.0773C263.05 89.0773 263.938 89.3106 264.436 89.544C264.904 89.7626 264.981 89.8866 264.888 90.4013L263.782 96.704C263.736 96.9213 263.628 97 263.393 97.0773C262.616 97.2946 261.589 97.528 260.188 97.528C258.054 97.528 257.293 96.1746 257.636 94.26L258.024 92.0346C258.381 89.964 259.612 89.0773 261.884 89.0773Z" fill="white"/>
<path d="M279.57 89.5908L278.278 97.0308C278.232 97.2481 278.14 97.3108 277.936 97.3108H277.454C277.236 97.3108 277.189 97.2481 277.22 97.0308L278.404 90.2908H275.152L274.542 92.8588C273.609 96.8121 272.708 97.0001 271.493 97.5121C271.321 97.5748 271.228 97.5281 271.182 97.3734L271.026 96.8908C270.98 96.7348 271.01 96.6734 271.166 96.5948C271.821 96.2841 272.708 96.2841 273.532 92.7668L274.278 89.5908C274.341 89.3734 274.42 89.3108 274.621 89.3108H279.353C279.554 89.3108 279.617 89.3734 279.57 89.5908Z" fill="white"/>
<path d="M289.786 96.5947C291.297 96.5947 292.137 95.9414 292.386 94.5707C292.604 93.2947 291.966 92.6107 290.565 92.6107C289.709 92.6107 288.962 92.7974 288.261 93.0467L287.749 95.8787C287.717 96.1281 287.733 96.1747 287.981 96.2987C288.402 96.4561 288.978 96.5947 289.786 96.5947ZM290.784 91.7081C292.776 91.7081 293.741 92.7974 293.414 94.6494C293.072 96.6107 291.841 97.5281 289.757 97.5281C288.494 97.5281 287.67 97.3267 287.11 97.0934C286.644 96.8907 286.549 96.7201 286.644 96.2214L287.825 89.5907C287.872 89.3734 287.95 89.3107 288.168 89.3107H288.62C288.837 89.3107 288.9 89.3734 288.853 89.5907L288.418 92.1281C289.164 91.8787 289.926 91.7081 290.784 91.7081Z" fill="white"/>
<path d="M308.594 89.5907L307.302 97.0307C307.255 97.248 307.178 97.3107 306.959 97.3107H306.478C306.259 97.3107 306.214 97.248 306.244 97.0307L306.836 93.684H302.322L301.746 97.0307C301.699 97.248 301.622 97.3107 301.403 97.3107H300.922C300.719 97.3107 300.656 97.248 300.687 97.0307L301.995 89.5907C302.042 89.3733 302.12 89.3107 302.338 89.3107H302.82C303.022 89.3107 303.084 89.3733 303.038 89.5907L302.494 92.72H307.007L307.552 89.5907C307.598 89.3733 307.676 89.3107 307.895 89.3107H308.376C308.578 89.3107 308.64 89.3733 308.594 89.5907Z" fill="white"/>
<path d="M325.612 89.5907L324.305 97.0307C324.257 97.2481 324.18 97.3107 323.977 97.3107H323.479C323.277 97.3107 323.215 97.2481 323.261 97.0307L324.569 89.5907C324.6 89.3734 324.695 89.3107 324.896 89.3107H325.379C325.596 89.3107 325.659 89.3734 325.612 89.5907ZM318.809 96.5947C320.32 96.5947 321.16 95.9414 321.411 94.5707C321.628 93.2947 320.989 92.6107 319.588 92.6107C318.733 92.6107 317.985 92.7974 317.285 93.0467L316.772 95.8787C316.741 96.1281 316.756 96.1734 317.005 96.2987C317.425 96.4547 318.001 96.5947 318.809 96.5947ZM319.807 91.7081C321.8 91.7081 322.764 92.7974 322.437 94.6494C322.095 96.6107 320.864 97.5281 318.78 97.5281C317.519 97.5281 316.695 97.3267 316.135 97.0934C315.667 96.8907 315.573 96.7201 315.667 96.2214L316.849 89.5907C316.896 89.3734 316.973 89.3107 317.192 89.3107H317.643C317.861 89.3107 317.923 89.3734 317.876 89.5907L317.441 92.1281C318.188 91.8787 318.951 91.7081 319.807 91.7081Z" fill="white"/>
<path d="M339.953 89.6221L336.638 93.2021L338.817 96.9994C338.925 97.2021 338.848 97.3114 338.552 97.3114H338.162C337.868 97.3114 337.82 97.2794 337.712 97.0781L335.922 93.9487L333.074 97.0781C332.902 97.2794 332.81 97.3114 332.529 97.3114H332.016C331.704 97.3114 331.689 97.2021 331.874 96.9994L335.362 93.2021L333.292 89.6221C333.213 89.4354 333.26 89.3114 333.572 89.3114H333.945C334.241 89.3114 334.304 89.3421 334.397 89.5434L336.093 92.4394L338.77 89.5434C338.957 89.3421 339.004 89.3114 339.3 89.3114H339.828C340.109 89.3114 340.141 89.4207 339.953 89.6221Z" fill="white"/>
<path d="M360.68 90.0426C359.061 90.0426 358.22 90.6333 357.94 92.1746L357.552 94.3386C357.302 95.708 357.848 96.5786 359.31 96.5786C360.369 96.5786 361.24 96.3613 361.708 96.2053L362.672 90.7586C362.704 90.5093 362.672 90.448 362.424 90.3386C362.018 90.1813 361.458 90.0426 360.68 90.0426ZM360.773 89.0773C361.94 89.0773 362.828 89.3106 363.325 89.544C363.793 89.7626 363.87 89.8866 363.777 90.4013L362.672 96.704C362.625 96.9213 362.517 97 362.282 97.0773C361.505 97.2946 360.478 97.528 359.077 97.528C356.944 97.528 356.182 96.1746 356.525 94.26L356.913 92.0346C357.27 89.964 358.501 89.0773 360.773 89.0773Z" fill="white"/>
<path d="M375.659 89.0778C377.791 89.0778 378.553 90.2912 378.211 92.2058L377.371 97.0312C377.324 97.2485 377.231 97.3112 377.028 97.3112H376.545C376.328 97.3112 376.281 97.2485 376.312 97.0312L377.168 92.1605C377.416 90.7592 376.872 90.0432 375.363 90.0432C374.475 90.0432 373.743 90.2138 373.245 90.3845C373.013 90.4792 372.965 90.6032 372.919 90.7738L371.829 97.0312C371.783 97.2485 371.705 97.3112 371.503 97.3112H371.005C370.801 97.3112 370.74 97.2485 370.787 97.0312L371.939 90.4632C372.032 89.9805 372.172 89.8098 372.687 89.6058C373.324 89.3578 374.257 89.0778 375.659 89.0778Z" fill="white"/>
<path d="M394.823 89.0778C396.799 89.0778 397.484 90.1978 397.141 92.1125L396.287 97.0312C396.239 97.2485 396.161 97.3112 395.944 97.3112H395.461C395.243 97.3112 395.196 97.2485 395.228 97.0312L396.115 92.0818C396.349 90.6965 395.865 90.0432 394.527 90.0432C393.484 90.0432 392.66 90.4165 392.317 90.5712C392.457 90.9605 392.472 91.4432 392.364 92.0352L391.492 97.0312C391.447 97.2485 391.368 97.3112 391.149 97.3112H390.668C390.451 97.3112 390.404 97.2485 390.451 97.0312L391.321 92.0818C391.571 90.6498 391.011 90.0432 389.687 90.0432C389.003 90.0432 388.504 90.1525 388.007 90.3538C387.757 90.4632 387.711 90.6032 387.664 90.7738L386.573 97.0312C386.527 97.2485 386.451 97.3112 386.247 97.3112H385.749C385.547 97.3112 385.484 97.2485 385.531 97.0312L386.684 90.4632C386.777 89.9805 386.932 89.7778 387.431 89.5752C388.021 89.3272 388.831 89.0778 389.983 89.0778C390.885 89.0778 391.523 89.3112 391.897 89.7632C392.255 89.6058 393.313 89.0778 394.823 89.0778Z" fill="white"/>
<path d="M408.902 89.9801C407.393 89.9801 406.35 90.8361 406.085 92.2681L405.961 92.8747C406.801 93.0627 407.689 93.1401 408.434 93.1401C409.82 93.1401 410.693 92.6734 410.926 91.7241C411.206 90.5867 410.428 89.9801 408.902 89.9801ZM409.058 89.0774C411.158 89.0774 412.326 90.1361 411.937 91.8467C411.626 93.2947 410.35 93.9641 408.28 93.9641C407.517 93.9641 406.584 93.8707 405.82 93.7161L405.681 94.4934C405.446 95.8467 406.1 96.6254 407.642 96.6254C408.918 96.6254 409.712 96.1441 410.288 95.3961C410.458 95.2094 410.568 95.1627 410.754 95.2867L411.05 95.4747C411.221 95.5827 411.221 95.7241 411.065 95.9254C410.35 96.8747 409.276 97.5281 407.486 97.5281C405.152 97.5281 404.342 96.1587 404.685 94.2761L405.058 92.2521C405.416 90.2294 406.864 89.0774 409.058 89.0774Z" fill="white"/>
<path d="M425.281 97.3109H424.829C424.518 97.3109 424.472 97.2642 424.41 97.0616L423.646 94.6336C423.444 93.9802 423.086 93.6842 422.293 93.6842H420.502L419.926 97.0149C419.88 97.2482 419.802 97.3109 419.569 97.3109H419.117C418.884 97.3109 418.837 97.2482 418.868 97.0149L420.176 89.5909C420.222 89.3736 420.301 89.3109 420.533 89.3109H420.985C421.202 89.3109 421.265 89.3736 421.218 89.5909L420.674 92.7202H422.324H422.478L425.545 89.5282C425.749 89.3109 425.825 89.3109 426.137 89.3109H426.573C426.868 89.3109 426.868 89.4669 426.65 89.6696L423.444 92.9842C424.052 93.1242 424.364 93.5122 424.596 94.1816L425.514 96.9842C425.592 97.2176 425.545 97.3109 425.281 97.3109Z" fill="white"/>
</svg>
