<svg width="32" height="32" viewBox="0 0 32 32" fill="none" xmlns="http://www.w3.org/2000/svg">
<path d="M22.5337 18.7716C22.0782 18.7716 21.7885 18.9663 21.6251 19.1298L19.7993 20.9567C19.7849 20.9712 19.7068 21.0096 19.5265 21.0096C18.5205 21.0096 16.3847 19.8906 14.2477 17.7524C11.3751 14.881 10.7416 12.5024 11.0433 12.2007L12.8703 10.375C14.0746 9.17067 11.9436 6.68029 10.5662 5.30288C9.94116 4.67788 7.79573 2.64062 6.4039 2.64062C5.94838 2.64062 5.65871 2.83534 5.49525 2.9988L1.8414 6.65264C0.745251 7.7488 1.13588 9.8774 3.00487 12.9784C4.61785 15.6562 7.16833 18.7933 10.1876 21.8125C14.6455 26.2704 20.5529 30.7692 23.7008 30.7692H23.702C24.5577 30.7692 25.0698 30.4375 25.3474 30.1587L29.0013 26.5048C30.2056 25.3017 28.0746 22.8113 26.6972 21.4339C26.0722 20.8089 23.9267 18.7716 22.5337 18.7716ZM24.0421 28.8534C24.0157 28.8798 23.9147 28.9231 23.7008 28.9231C21.863 28.9231 16.9592 25.9736 11.4928 20.5072C8.57698 17.5913 6.12386 14.5793 4.58539 12.0264C2.86664 9.17187 3.01328 8.09135 3.14669 7.95793L6.56376 4.54087C7.01929 4.72716 8.03972 5.38702 9.26087 6.60817C10.4832 7.83053 11.1419 8.85096 11.3282 9.30529L9.73804 10.8954C8.03491 12.601 10.2056 16.3221 12.9424 19.0577C15.2837 21.4002 17.8065 22.8558 19.5265 22.8558C20.339 22.8558 20.833 22.5337 21.1046 22.262L22.6948 20.6719C23.1491 20.8582 24.1695 21.5168 25.3919 22.7392C26.613 23.9615 27.2729 24.9808 27.4592 25.4363L24.0421 28.8534Z" fill="#1D1D1B"/>
<path d="M27.6515 4.3485C25.6419 2.33768 22.9664 1.23071 20.1191 1.23071C20.1179 1.23071 20.1167 1.23071 20.1167 1.23071C19.6071 1.23071 19.1936 1.64417 19.1936 2.15379C19.1936 2.66341 19.6071 3.07687 20.1167 3.07687C20.1179 3.07687 20.1179 3.07687 20.1191 3.07687C22.4737 3.07687 24.6852 3.99153 26.3462 5.65379C28.0085 7.31605 28.9232 9.52759 28.9232 11.8834C28.9232 12.393 29.3366 12.8064 29.8462 12.8064C30.3559 12.8064 30.7693 12.393 30.7693 11.8834C30.7705 9.0348 29.6624 6.35932 27.6515 4.3485Z" fill="#1D1D1B"/>
<path d="M18.8992 6.72714C18.9004 6.72714 18.9004 6.72714 18.9016 6.72714C20.6059 6.72714 22.2056 7.38939 23.4088 8.59132C24.6107 9.79444 25.2729 11.3954 25.2729 13.1009C25.2729 13.6105 25.6864 14.024 26.196 14.024C26.7056 14.024 27.1191 13.6105 27.1191 13.1009C27.1203 10.9026 26.2657 8.83771 24.7141 7.28603C23.1624 5.73555 21.0987 4.88098 18.9016 4.88098C18.9004 4.88098 18.8992 4.88098 18.8992 4.88098C18.3895 4.88098 17.9761 5.29444 17.9761 5.80406C17.9761 6.31367 18.3895 6.72714 18.8992 6.72714Z" fill="#1D1D1B"/>
<path d="M17.6815 10.3774C17.6827 10.3774 17.6827 10.3774 17.6839 10.3774C18.7368 10.3774 19.7272 10.7873 20.47 11.53C21.214 12.274 21.6226 13.2644 21.6226 14.3185C21.6226 14.8281 22.0361 15.2416 22.5457 15.2416C23.0553 15.2416 23.4688 14.8281 23.4688 14.3185C23.47 12.7716 22.8678 11.3173 21.7752 10.2248C20.6839 9.13221 19.2308 8.53125 17.6839 8.53125C17.6827 8.53125 17.6815 8.53125 17.6815 8.53125C17.1719 8.53125 16.7584 8.94471 16.7584 9.45433C16.7584 9.96394 17.1719 10.3774 17.6815 10.3774Z" fill="#1D1D1B"/>
</svg>
